<?xml version="1.0" encoding="UTF-8"?>
<!DOCTYPE svg PUBLIC "-//W3C//DTD SVG 1.1//EN" "http://www.w3.org/Graphics/SVG/1.1/DTD/svg11.dtd">
<!-- Creator: CorelDRAW X8 -->
<svg xmlns="http://www.w3.org/2000/svg" xml:space="preserve" width="52px" height="19px" version="1.1" shape-rendering="geometricPrecision" text-rendering="geometricPrecision" image-rendering="optimizeQuality" fill-rule="evenodd" clip-rule="evenodd"
viewBox="0 0 7206 2590"
 xmlns:xlink="http://www.w3.org/1999/xlink">
 <g id="Слой_x0020_1">
  <metadata id="CorelCorpID_0Corel-Layer"/>
  <g id="_2461002007392">
   <path fill="#F2A900" fill-rule="nonzero" stroke="#F2A900" stroke-width="138.293" d="M7125 1131c-16,-16 -42,-16 -58,0l-508 510 -510 -510c-16,-16 -42,-16 -58,0 -16,16 -16,42 0,58l538 538c8,8 18,12 28,12 10,0 21,-4 29,-12l538 -538c17,-16 17,-42 1,-58z"/>
   <path fill="#F2A900" fill-rule="nonzero" d="M3268 0l-516 2449c-17,64 -60,96 -129,96l-369 0c-71,0 -113,-33 -125,-99l-399 -1915c-15,-64 -34,-160 -59,-288l-77 0 -56 288 -394 1915c-18,66 -61,99 -130,99l-372 0c-32,0 -60,-9 -83,-27 -24,-19 -38,-41 -43,-69l-516 -2449 343 0 399 1985c4,22 22,126 51,313l85 0c20,-115 39,-220 59,-313l395 -1878c12,-71 54,-107 125,-107l354 0c67,0 108,36 126,107l394 1878c25,120 42,225 52,313l92 0c22,-147 38,-251 48,-310l402 -1988 343 0zm1683 2287l33 210c-177,62 -383,93 -616,93 -310,0 -530,-71 -659,-212 -129,-142 -193,-386 -193,-733 0,-347 64,-590 193,-730 129,-140 350,-210 662,-210 236,0 430,28 580,84l-41 203c-162,-14 -325,-22 -487,-22 -216,0 -366,48 -450,144 -84,96 -125,273 -125,531 0,261 41,439 125,535 84,96 234,144 450,144 197,0 373,-12 528,-37z"/>
  </g>
 </g>
</svg>
