<?xml version="1.0" encoding="UTF-8"?>
<!DOCTYPE svg PUBLIC "-//W3C//DTD SVG 1.1//EN" "http://www.w3.org/Graphics/SVG/1.1/DTD/svg11.dtd">
<!-- Creator: CorelDRAW X8 -->
<svg xmlns="http://www.w3.org/2000/svg" xml:space="preserve" width="24px" height="18px" version="1.1" shape-rendering="geometricPrecision" text-rendering="geometricPrecision" image-rendering="optimizeQuality" fill-rule="evenodd" clip-rule="evenodd"
viewBox="0 0 1518 1181"
 xmlns:xlink="http://www.w3.org/1999/xlink">
 <g id="Слой_x0020_1">
  <metadata id="CorelCorpID_0Corel-Layer"/>
  <g id="_2461001970112">
   <path fill="black" fill-rule="nonzero" d="M1488 1165l0 3 3 0c1,0 1,0 1,0 1,-1 1,-1 1,-2 0,0 0,0 -1,-1 0,0 0,0 -1,0l-3 0zm3 -2c1,0 3,0 3,1 1,0 2,1 2,2 0,1 -1,2 -1,3 -1,0 -2,1 -3,1l4 4 -3 0 -4 -4 -1 0 0 4 -2 0 0 -11 5 0zm-1 15c2,0 3,0 4,-1 1,0 2,-1 3,-2 1,0 2,-1 2,-3 1,-1 1,-2 1,-3 0,-2 0,-3 -1,-4 0,-1 -1,-2 -2,-3 -1,-1 -2,-2 -3,-2 -1,-1 -2,-1 -4,-1 -1,0 -2,0 -4,1 -1,0 -2,1 -3,2 -1,1 -1,2 -2,3 0,1 0,2 0,4 0,1 0,2 0,3 1,2 1,3 2,3 1,1 2,2 3,2 2,1 3,1 4,1zm0 -22c2,0 4,1 5,1 2,1 3,2 4,3 1,1 2,2 3,4 0,1 1,3 1,5 0,1 -1,3 -1,4 -1,2 -2,3 -3,4 -1,1 -2,2 -4,3 -1,1 -3,1 -5,1 -2,0 -3,0 -5,-1 -1,-1 -3,-2 -4,-3 -1,-1 -2,-2 -2,-4 -1,-1 -1,-3 -1,-4 0,-2 0,-4 1,-5 0,-2 1,-3 2,-4 1,-1 3,-2 4,-3 2,0 3,-1 5,-1zm-1162 -44c0,-22 14,-40 38,-40 22,0 37,17 37,40 0,23 -15,40 -37,40 -24,0 -38,-18 -38,-40zm101 0l0 -62 -27 0 0 15c-9,-11 -22,-18 -40,-18 -34,0 -62,27 -62,65 0,38 28,65 62,65 18,0 31,-7 40,-18l0 15 27 0 0 -62zm915 0c0,-22 14,-40 38,-40 22,0 37,17 37,40 0,23 -15,40 -37,40 -24,0 -38,-18 -38,-40l0 0zm101 0l0 -112 -27 0 0 65c-9,-11 -22,-18 -39,-18 -35,0 -63,27 -63,65 0,38 28,65 63,65 17,0 30,-7 39,-18l0 15 27 0 0 -62zm-680 -41c18,0 29,11 32,30l-65 0c3,-18 14,-30 33,-30l0 0zm1 -24c-37,0 -62,26 -62,65 0,40 26,65 63,65 19,0 36,-4 51,-17l-13 -20c-10,8 -24,13 -36,13 -17,0 -33,-8 -37,-31l92 0c0,-3 1,-6 1,-10 -1,-39 -24,-65 -59,-65l0 0zm327 65c0,-22 14,-40 37,-40 23,0 38,17 38,40 0,23 -15,40 -38,40 -23,0 -37,-18 -37,-40l0 0zm101 0l0 -62 -28 0 0 15c-8,-11 -21,-18 -39,-18 -35,0 -62,27 -62,65 0,38 27,65 62,65 18,0 31,-7 39,-18l0 15 28 0 0 -62zm-254 0c0,38 26,65 66,65 19,0 31,-4 45,-14l-13 -22c-10,7 -21,11 -33,11 -21,0 -37,-16 -37,-40 0,-24 16,-40 37,-40 12,0 23,4 33,11l13 -22c-14,-10 -26,-14 -45,-14 -40,0 -66,27 -66,65l0 0zm349 -65c-16,0 -26,7 -33,18l0 -15 -27 0 0 124 27 0 0 -70c0,-20 9,-32 27,-32 5,0 11,1 17,3l8 -25c-6,-2 -14,-3 -19,-3l0 0zm-726 13c-13,-9 -31,-13 -51,-13 -32,0 -52,15 -52,39 0,21 15,33 43,37l13 2c15,2 22,6 22,13 0,10 -10,15 -29,15 -18,0 -32,-6 -41,-13l-13 21c15,11 34,16 54,16 36,0 57,-17 57,-40 0,-22 -16,-34 -44,-38l-12 -1c-12,-2 -21,-4 -21,-13 0,-9 8,-14 23,-14 16,0 32,6 39,10l12 -21zm349 -13c-15,0 -25,7 -33,18l0 -15 -26 0 0 124 27 0 0 -70c0,-20 9,-32 26,-32 6,0 12,1 17,3l9 -25c-6,-2 -14,-3 -20,-3l0 0zm-231 3l-44 0 0 -38 -28 0 0 38 -25 0 0 24 25 0 0 57c0,29 12,46 44,46 11,0 25,-3 34,-9l-8 -23c-8,4 -17,7 -24,7 -14,0 -18,-9 -18,-21l0 -57 44 0 0 -24zm-405 124l0 -78c0,-29 -19,-49 -49,-49 -16,-1 -32,4 -44,22 -8,-14 -22,-22 -41,-22 -13,0 -26,3 -36,18l0 -15 -27 0 0 124 27 0 0 -69c0,-21 12,-33 30,-33 18,0 28,12 28,33l0 69 27 0 0 -69c0,-21 12,-33 30,-33 19,0 28,12 28,33l0 69 27 0z"/>
   <polygon fill="#FF5F00" fill-rule="nonzero" points="554,838 964,838 964,100 554,100 "/>
   <path fill="#EB001B" fill-rule="nonzero" d="M580 469c0,-150 70,-283 179,-369 -80,-63 -180,-100 -290,-100 -259,0 -469,210 -469,469 0,259 210,469 469,469 110,0 210,-37 290,-100 -109,-86 -179,-219 -179,-369z"/>
   <path fill="#F79E1B" fill-rule="nonzero" d="M1504 760l0 -18 -5 0 -6 12 -5 -12 -5 0 0 18 3 0 0 -14 6 12 3 0 5 -12 0 14 4 0zm-31 0l0 -15 6 0 0 -3 -15 0 0 3 6 0 0 15 3 0zm45 -291c0,259 -210,469 -469,469 -109,0 -210,-37 -290,-100 109,-86 179,-219 179,-369 0,-150 -70,-283 -179,-369 80,-63 181,-100 290,-100 259,0 469,210 469,469z"/>
  </g>
 </g>
</svg>
